{
  "description": "Shows legacy tray icons on top",
  "name": "TopIcons",
  "shell-version": [
    "3.10",
    "3.9.91",
    "3.12",
    "3.11.5",
    "3.11.90",
    "3.14",
    "3.13.4",
    "3.16",
    "3.18",
    "3.20",
    "3.26"
  ],
  "uuid": "topIcons@adel.gadllah@gmail.com"
}
